demo6@essentialcfo.com
9816-460B-7F04-4CC9-9A82



License:                     9816-460B-7F04-4CC9-9A82 (Enterprise License)
UserName:                demo6@essentialcfo.com
Password:                 P@ssw0rd11111
OrganizationName:   Demo6
Db Name:                  Demo6


ECFOWebService
Data Source=SQL;Initial Catalog=Demo6;User ID=QBsync;Password=p@ssw0rd1111
data source=PRGUPTA\SQLEXPADV;initial catalog=dbCompany;user id=sa;password=p@ssw0rd1111;